-- Merging decision tree log ---
manifest
ADDED from C:\Users\Giuseppe\Downloads\mini_app_collection\giocoBandiere\src\main\AndroidManifest.xml:2:1-18:12
	package
		ADDED from C:\Users\Giuseppe\Downloads\mini_app_collection\giocoBandiere\src\main\AndroidManifest.xml:3:4-37
		INJECTED from C:\Users\Giuseppe\Downloads\mini_app_collection\giocoBandiere\src\main\AndroidManifest.xml
		INJECTED from C:\Users\Giuseppe\Downloads\mini_app_collection\giocoBandiere\src\main\AndroidManifest.xml
	android:versionName
		ADDED from C:\Users\Giuseppe\Downloads\mini_app_collection\giocoBandiere\src\main\AndroidManifest.xml:4:4-29
		INJECTED from C:\Users\Giuseppe\Downloads\mini_app_collection\giocoBandiere\src\main\AndroidManifest.xml
		INJECTED from C:\Users\Giuseppe\Downloads\mini_app_collection\giocoBandiere\src\main\AndroidManifest.xml
	android:versionCode
		ADDED from C:\Users\Giuseppe\Downloads\mini_app_collection\giocoBandiere\src\main\AndroidManifest.xml:3:38-61
		INJECTED from C:\Users\Giuseppe\Downloads\mini_app_collection\giocoBandiere\src\main\AndroidManifest.xml
		INJECTED from C:\Users\Giuseppe\Downloads\mini_app_collection\giocoBandiere\src\main\AndroidManifest.xml
	xmlns:android
		ADDED from C:\Users\Giuseppe\Downloads\mini_app_collection\giocoBandiere\src\main\AndroidManifest.xml:2:11-69
application
ADDED from C:\Users\Giuseppe\Downloads\mini_app_collection\giocoBandiere\src\main\AndroidManifest.xml:5:4-17:18
MERGED from [android.arch.lifecycle:runtime:1.0.0] C:\Users\Giuseppe\Downloads\mini_app_collection\giocoBandiere\build\intermediates\exploded-aar\android.arch.lifecycle\runtime\1.0.0\AndroidManifest.xml:24:5-28:19
MERGED from [android.arch.lifecycle:runtime:1.0.0] C:\Users\Giuseppe\Downloads\mini_app_collection\giocoBandiere\build\intermediates\exploded-aar\android.arch.lifecycle\runtime\1.0.0\AndroidManifest.xml:24:5-28:19
MERGED from [android.arch.lifecycle:runtime:1.0.0] C:\Users\Giuseppe\Downloads\mini_app_collection\giocoBandiere\build\intermediates\exploded-aar\android.arch.lifecycle\runtime\1.0.0\AndroidManifest.xml:24:5-28:19
MERGED from [android.arch.lifecycle:runtime:1.0.0] C:\Users\Giuseppe\Downloads\mini_app_collection\giocoBandiere\build\intermediates\exploded-aar\android.arch.lifecycle\runtime\1.0.0\AndroidManifest.xml:24:5-28:19
MERGED from [android.arch.lifecycle:runtime:1.0.0] C:\Users\Giuseppe\Downloads\mini_app_collection\giocoBandiere\build\intermediates\exploded-aar\android.arch.lifecycle\runtime\1.0.0\AndroidManifest.xml:24:5-28:19
MERGED from [android.arch.lifecycle:runtime:1.0.0] C:\Users\Giuseppe\Downloads\mini_app_collection\giocoBandiere\build\intermediates\exploded-aar\android.arch.lifecycle\runtime\1.0.0\AndroidManifest.xml:24:5-28:19
MERGED from [android.arch.lifecycle:runtime:1.0.0] C:\Users\Giuseppe\Downloads\mini_app_collection\giocoBandiere\build\intermediates\exploded-aar\android.arch.lifecycle\runtime\1.0.0\AndroidManifest.xml:24:5-28:19
	android:label
		ADDED from C:\Users\Giuseppe\Downloads\mini_app_collection\giocoBandiere\src\main\AndroidManifest.xml:6:7-39
	android:icon
		ADDED from C:\Users\Giuseppe\Downloads\mini_app_collection\giocoBandiere\src\main\AndroidManifest.xml:5:17-46
activity#com.deitel.flagquizgame.FlagQuizGame
ADDED from C:\Users\Giuseppe\Downloads\mini_app_collection\giocoBandiere\src\main\AndroidManifest.xml:8:7-16:18
	android:screenOrientation
		ADDED from C:\Users\Giuseppe\Downloads\mini_app_collection\giocoBandiere\src\main\AndroidManifest.xml:10:10-46
	android:label
		ADDED from C:\Users\Giuseppe\Downloads\mini_app_collection\giocoBandiere\src\main\AndroidManifest.xml:9:10-42
	android:name
		ADDED from C:\Users\Giuseppe\Downloads\mini_app_collection\giocoBandiere\src\main\AndroidManifest.xml:8:17-45
intent-filter#android.intent.action.MAIN+android.intent.category.LAUNCHER
ADDED from C:\Users\Giuseppe\Downloads\mini_app_collection\giocoBandiere\src\main\AndroidManifest.xml:12:10-15:26
action#android.intent.action.MAIN
ADDED from C:\Users\Giuseppe\Downloads\mini_app_collection\giocoBandiere\src\main\AndroidManifest.xml:13:13-65
	android:name
		ADDED from C:\Users\Giuseppe\Downloads\mini_app_collection\giocoBandiere\src\main\AndroidManifest.xml:13:21-62
category#android.intent.category.LAUNCHER
ADDED from C:\Users\Giuseppe\Downloads\mini_app_collection\giocoBandiere\src\main\AndroidManifest.xml:14:13-73
	android:name
		ADDED from C:\Users\Giuseppe\Downloads\mini_app_collection\giocoBandiere\src\main\AndroidManifest.xml:14:23-70
uses-sdk
INJECTED from C:\Users\Giuseppe\Downloads\mini_app_collection\giocoBandiere\src\main\AndroidManifest.xml reason: use-sdk injection requested
MERGED from [com.android.support:appcompat-v7:27.0.1] C:\Users\Giuseppe\Downloads\mini_app_collection\giocoBandiere\build\intermediates\exploded-aar\com.android.support\appcompat-v7\27.0.1\AndroidManifest.xml:20:5-44
MERGED from [com.android.support:support-core-utils:27.0.1] C:\Users\Giuseppe\Downloads\mini_app_collection\giocoBandiere\build\intermediates\exploded-aar\com.android.support\support-core-utils\27.0.1\AndroidManifest.xml:20:5-44
MERGED from [com.android.support:support-compat:27.0.1] C:\Users\Giuseppe\Downloads\mini_app_collection\giocoBandiere\build\intermediates\exploded-aar\com.android.support\support-compat\27.0.1\AndroidManifest.xml:20:5-44
MERGED from [android.arch.lifecycle:runtime:1.0.0] C:\Users\Giuseppe\Downloads\mini_app_collection\giocoBandiere\build\intermediates\exploded-aar\android.arch.lifecycle\runtime\1.0.0\AndroidManifest.xml:20:5-22:41
MERGED from [com.android.support:support-fragment:27.0.1] C:\Users\Giuseppe\Downloads\mini_app_collection\giocoBandiere\build\intermediates\exploded-aar\com.android.support\support-fragment\27.0.1\AndroidManifest.xml:20:5-44
MERGED from [com.android.support:support-compat:27.0.1] C:\Users\Giuseppe\Downloads\mini_app_collection\giocoBandiere\build\intermediates\exploded-aar\com.android.support\support-compat\27.0.1\AndroidManifest.xml:20:5-44
MERGED from [android.arch.lifecycle:runtime:1.0.0] C:\Users\Giuseppe\Downloads\mini_app_collection\giocoBandiere\build\intermediates\exploded-aar\android.arch.lifecycle\runtime\1.0.0\AndroidManifest.xml:20:5-22:41
MERGED from [com.android.support:support-core-ui:27.0.1] C:\Users\Giuseppe\Downloads\mini_app_collection\giocoBandiere\build\intermediates\exploded-aar\com.android.support\support-core-ui\27.0.1\AndroidManifest.xml:20:5-44
MERGED from [com.android.support:support-compat:27.0.1] C:\Users\Giuseppe\Downloads\mini_app_collection\giocoBandiere\build\intermediates\exploded-aar\com.android.support\support-compat\27.0.1\AndroidManifest.xml:20:5-44
MERGED from [android.arch.lifecycle:runtime:1.0.0] C:\Users\Giuseppe\Downloads\mini_app_collection\giocoBandiere\build\intermediates\exploded-aar\android.arch.lifecycle\runtime\1.0.0\AndroidManifest.xml:20:5-22:41
MERGED from [com.android.support:support-core-utils:27.0.1] C:\Users\Giuseppe\Downloads\mini_app_collection\giocoBandiere\build\intermediates\exploded-aar\com.android.support\support-core-utils\27.0.1\AndroidManifest.xml:20:5-44
MERGED from [com.android.support:support-compat:27.0.1] C:\Users\Giuseppe\Downloads\mini_app_collection\giocoBandiere\build\intermediates\exploded-aar\com.android.support\support-compat\27.0.1\AndroidManifest.xml:20:5-44
MERGED from [android.arch.lifecycle:runtime:1.0.0] C:\Users\Giuseppe\Downloads\mini_app_collection\giocoBandiere\build\intermediates\exploded-aar\android.arch.lifecycle\runtime\1.0.0\AndroidManifest.xml:20:5-22:41
MERGED from [com.android.support:support-vector-drawable:27.0.1] C:\Users\Giuseppe\Downloads\mini_app_collection\giocoBandiere\build\intermediates\exploded-aar\com.android.support\support-vector-drawable\27.0.1\AndroidManifest.xml:20:5-44
MERGED from [com.android.support:support-compat:27.0.1] C:\Users\Giuseppe\Downloads\mini_app_collection\giocoBandiere\build\intermediates\exploded-aar\com.android.support\support-compat\27.0.1\AndroidManifest.xml:20:5-44
MERGED from [android.arch.lifecycle:runtime:1.0.0] C:\Users\Giuseppe\Downloads\mini_app_collection\giocoBandiere\build\intermediates\exploded-aar\android.arch.lifecycle\runtime\1.0.0\AndroidManifest.xml:20:5-22:41
MERGED from [com.android.support:animated-vector-drawable:27.0.1] C:\Users\Giuseppe\Downloads\mini_app_collection\giocoBandiere\build\intermediates\exploded-aar\com.android.support\animated-vector-drawable\27.0.1\AndroidManifest.xml:20:5-44
MERGED from [com.android.support:support-vector-drawable:27.0.1] C:\Users\Giuseppe\Downloads\mini_app_collection\giocoBandiere\build\intermediates\exploded-aar\com.android.support\support-vector-drawable\27.0.1\AndroidManifest.xml:20:5-44
MERGED from [com.android.support:support-compat:27.0.1] C:\Users\Giuseppe\Downloads\mini_app_collection\giocoBandiere\build\intermediates\exploded-aar\com.android.support\support-compat\27.0.1\AndroidManifest.xml:20:5-44
MERGED from [android.arch.lifecycle:runtime:1.0.0] C:\Users\Giuseppe\Downloads\mini_app_collection\giocoBandiere\build\intermediates\exploded-aar\android.arch.lifecycle\runtime\1.0.0\AndroidManifest.xml:20:5-22:41
MERGED from [com.android.support:support-core-ui:27.0.1] C:\Users\Giuseppe\Downloads\mini_app_collection\giocoBandiere\build\intermediates\exploded-aar\com.android.support\support-core-ui\27.0.1\AndroidManifest.xml:20:5-44
MERGED from [com.android.support:support-compat:27.0.1] C:\Users\Giuseppe\Downloads\mini_app_collection\giocoBandiere\build\intermediates\exploded-aar\com.android.support\support-compat\27.0.1\AndroidManifest.xml:20:5-44
MERGED from [android.arch.lifecycle:runtime:1.0.0] C:\Users\Giuseppe\Downloads\mini_app_collection\giocoBandiere\build\intermediates\exploded-aar\android.arch.lifecycle\runtime\1.0.0\AndroidManifest.xml:20:5-22:41
	android:targetSdkVersion
		INJECTED from C:\Users\Giuseppe\Downloads\mini_app_collection\giocoBandiere\src\main\AndroidManifest.xml
		INJECTED from C:\Users\Giuseppe\Downloads\mini_app_collection\giocoBandiere\src\main\AndroidManifest.xml
	android:minSdkVersion
		INJECTED from C:\Users\Giuseppe\Downloads\mini_app_collection\giocoBandiere\src\main\AndroidManifest.xml
		INJECTED from C:\Users\Giuseppe\Downloads\mini_app_collection\giocoBandiere\src\main\AndroidManifest.xml
meta-data#android.arch.lifecycle.VERSION
ADDED from [android.arch.lifecycle:runtime:1.0.0] C:\Users\Giuseppe\Downloads\mini_app_collection\giocoBandiere\build\intermediates\exploded-aar\android.arch.lifecycle\runtime\1.0.0\AndroidManifest.xml:25:9-27:47
MERGED from [android.arch.lifecycle:runtime:1.0.0] C:\Users\Giuseppe\Downloads\mini_app_collection\giocoBandiere\build\intermediates\exploded-aar\android.arch.lifecycle\runtime\1.0.0\AndroidManifest.xml:25:9-27:47
MERGED from [android.arch.lifecycle:runtime:1.0.0] C:\Users\Giuseppe\Downloads\mini_app_collection\giocoBandiere\build\intermediates\exploded-aar\android.arch.lifecycle\runtime\1.0.0\AndroidManifest.xml:25:9-27:47
MERGED from [android.arch.lifecycle:runtime:1.0.0] C:\Users\Giuseppe\Downloads\mini_app_collection\giocoBandiere\build\intermediates\exploded-aar\android.arch.lifecycle\runtime\1.0.0\AndroidManifest.xml:25:9-27:47
MERGED from [android.arch.lifecycle:runtime:1.0.0] C:\Users\Giuseppe\Downloads\mini_app_collection\giocoBandiere\build\intermediates\exploded-aar\android.arch.lifecycle\runtime\1.0.0\AndroidManifest.xml:25:9-27:47
MERGED from [android.arch.lifecycle:runtime:1.0.0] C:\Users\Giuseppe\Downloads\mini_app_collection\giocoBandiere\build\intermediates\exploded-aar\android.arch.lifecycle\runtime\1.0.0\AndroidManifest.xml:25:9-27:47
MERGED from [android.arch.lifecycle:runtime:1.0.0] C:\Users\Giuseppe\Downloads\mini_app_collection\giocoBandiere\build\intermediates\exploded-aar\android.arch.lifecycle\runtime\1.0.0\AndroidManifest.xml:25:9-27:47
	android:value
		ADDED from [android.arch.lifecycle:runtime:1.0.0] C:\Users\Giuseppe\Downloads\mini_app_collection\giocoBandiere\build\intermediates\exploded-aar\android.arch.lifecycle\runtime\1.0.0\AndroidManifest.xml:27:13-44
	android:name
		ADDED from [android.arch.lifecycle:runtime:1.0.0] C:\Users\Giuseppe\Downloads\mini_app_collection\giocoBandiere\build\intermediates\exploded-aar\android.arch.lifecycle\runtime\1.0.0\AndroidManifest.xml:26:13-58
